Statistical Hypothesis Testing Using the Delta Method • deltatest
…
To illustrate how to use this package, we prepare a data frame that includes columns for the number of clicks and page-views aggregated for each user. This data frame also contains a column indicating whether each user was assigned to the control or treatment group.

library(dplyr)

n_user <- 2000

set.seed(314)
data <- deltatest::generate_dummy_data(n_user) |> 
  mutate(group = if_else(group == 0, "control", "treatment")) |>
  group_by(user_id, group) |> 
  summarise(clicks = sum(metric), pageviews = n(), .groups = "drop")

data
#> # A tibble: 2,000 × 4
#>    user_id group     clicks pageviews
#>      <int> <chr>      <int>     <int>
#>  1       1 treatment      1         6
#>  2       2 treatment      2        11
#>  3       3 control        0        17
#>  4       4 control        4        12
#>  5       5 control        5        10
#>  6       6 control        1        15
#>  7       7 control        2         6
#>  8       8 treatment      2        11
#>  9       9 treatment      2        16
#> 10      10 control        0        17
#> # ℹ 1,990 more rows
…
Note that the denominator should match the analysis unit.

The deltatest package provides the generate_dummy_data function to create dummy data. It generates metric values per page-view, so you need to aggregate the data by user.

library(dplyr)

n_user <- 2000

set.seed(314)
data <- deltatest::generate_dummy_data(n_user) |>
  group_by(user_id, group) |>
  summarise(clicks = sum(metric), pageviews = n(), .groups = "drop")

data
#> # A tibble: 2,000 × 4
#>    user_id group clicks pageviews
#>      <int> <int>  <int>     <int>
#>  1       1     1      1         6
#>  2       2     1      2        11
#>  3       3     0      0        17
#>  4       4     0      4        12
#>  5       5     0      5        10
#>  6       6     0      1        15
#>  7       7     0      2         6
#>  8       8     1      2        11
#>  9       9     1      2        16
#> 10      10     0      0        17
#> # ℹ 1,990 more rows
…
